[gd_scene load_steps=6 format=2]

[ext_resource path="res://res/images/background.png" type="Texture" id=1]
[ext_resource path="res://Story.gd" type="Script" id=2]
[ext_resource path="res://res/fonts/KaushanScript-Regular.otf" type="DynamicFontData" id=3]
[ext_resource path="res://res/images/Btn_Exit_small.png" type="Texture" id=4]

[sub_resource type="DynamicFont" id=1]
size = 32
font_data = ExtResource( 3 )

[node name="Story" type="Node2D"]
script = ExtResource( 2 )

[node name="background" type="Sprite" parent="."]
position = Vector2( 222.013, 329.832 )
texture = ExtResource( 1 )

[node name="Label" type="Label" parent="."]
margin_left = 6.72717
margin_top = 728.216
margin_right = 465.727
margin_bottom = 2425.22
custom_fonts/font = SubResource( 1 )
text = "Meta-Tron

The Cube of Meta-Tron's location has been discovered and the race is on for all who desire it's powers.  The 5 Solids of the Platonic symbolizing the power of it's geometric pattern is found throughout the universe.  But, the central essence of its power is found in the small cube that has been missing for centuries.  Divine is its energy as it flows through creation and connects to every electron in the Universe as it provides a path for communications and power.  A power that is uncontainable outside of the cube.  As races from all planets converge on the lost relic it's becoming clear that not all intent is honorable or good.  Some seek its power to dominate and control, while others seek it out for good, and yet others search for it just to make sure it's power stays unused.  The Universe wants this power to be discovered and for it to be used for good.  All you know is that you have been hired to get it first.  Swarms of enemy ships converge upon your location.  Path of vessels intercept your advancement towards The Cube of Meta-Tron!!!"
align = 1
autowrap = true
__meta__ = {
"_edit_use_anchors_": false
}

[node name="exit" type="Button" parent="."]
anchor_bottom = 0.762
margin_right = 76.0
margin_bottom = 35.0
icon = ExtResource( 4 )
flat = true
__meta__ = {
"_edit_use_anchors_": false
}
[connection signal="button_up" from="exit" to="." method="_on_exit_button_up"]
